1 1001 179
1001 2001 182
2001 3001 217
3001 4001 238
4001 5001 215
5001 6001 236
6001 7001 262
7001 8001 252
8001 9001 247
9001 10001 260
10001 11001 268
11001 12001 250
12001 13001 263
13001 14001 276
14001 15001 271
15001 16001 271
16001 17001 266
17001 18001 279
18001 19001 261
19001 20001 274
20001 21001 256
21001 22001 269
22001 23001 269
23001 24001 282
24001 25001 264
25001 26001 264
26001 27001 308
27001 28001 259
28001 29001 259
29001 30001 272
30001 31001 272
31001 32001 285
32001 33001 267
33001 34001 267
34001 35001 311
35001 36001 324
36001 37001 249
37001 38001 306
38001 39001 244
39001 40001 306
40001 41001 288
41001 42001 257
42001 43001 288
43001 44001 270
44001 45001 270
45001 46001 314
46001 47001 283
47001 48001 314
48001 49001 296
49001 50001 296
50001 51001 278
51001 52001 309
52001 53001 340
53001 54001 322
54001 55001 260
55001 56001 260
56001 57001 322
57001 58001 304
58001 59001 273
59001 60001 304
60001 61001 335
61001 62001 317
62001 63001 286
63001 64001 330
64001 65001 299
65001 66001 268
66001 67001 268
67001 68001 312
68001 69001 312
69001 70001 299
70001 71001 312
71001 72001 325
72001 73001 263
73001 74001 294
74001 75001 325
75001 76001 307
76001 77001 307
77001 78001 351
78001 79001 338
79001 80001 307
80001 81001 320
81001 82001 320
82001 83001 320
83001 84001 289
84001 85001 320
85001 86001 302
86001 87001 302
87001 88001 333
88001 89001 333
89001 90001 315
90001 91001 315
91001 92001 333
92001 93001 315
93001 94001 284
94001 95001 315
95001 96001 328
96001 97001 297
97001 98001 297
98001 99001 284
99001 100001 328
100001 101001 341
101001 102001 310
102001 103001 310
103001 104001 248
104001 105001 310
105001 106001 341
106001 107001 354
107001 108001 292
108001 109001 279
109001 110001 310
110001 111001 292
111001 112001 323
112001 113001 323
113001 114001 292
114001 115001 305
115001 116001 349
116001 117001 305
117001 118001 305
118001 119001 336
119001 120001 305
120001 121001 318
121001 122001 336
122001 123001 318
123001 124001 331
124001 125001 287
125001 126001 318
126001 127001 331
127001 128001 287
128001 129001 331
129001 130001 344
130001 131001 331
131001 132001 300
132001 133001 331
133001 134001 313
134001 135001 300
135001 136001 344
136001 137001 313
137001 138001 331
138001 139001 313
139001 140001 313
140001 141001 344
141001 142001 326
142001 143001 375
143001 144001 282
144001 145001 326
145001 146001 295
146001 147001 357
147001 148001 295
148001 149001 326
149001 150001 326
150001 151001 370
151001 152001 295
152001 153001 308
153001 154001 308
154001 155001 352
155001 156001 308
156001 157001 383
157001 158001 339
158001 159001 321
159001 160001 352
160001 161001 370
161001 162001 290
162001 163001 339
163001 164001 321
164001 165001 334
165001 166001 321
166001 167001 352
167001 168001 321
168001 169001 321
169001 170001 334
170001 171001 334
171001 172001 334
172001 173001 303
173001 174001 347
174001 175001 334
175001 176001 272
176001 177001 334
177001 178001 334
178001 179001 347
179001 180001 303
180001 181001 365
181001 182001 316
182001 183001 334
183001 184001 254
184001 185001 316
185001 186001 329
186001 187001 347
187001 188001 329
188001 189001 316
189001 190001 360
190001 191001 329
191001 192001 329
192001 193001 347
193001 194001 329
194001 195001 342
195001 196001 360
196001 197001 298
197001 198001 285
198001 199001 329
199001 200001 329
200001 201001 342
201001 202001 311
202001 203001 342
203001 204001 311
204001 205001 311
205001 206001 355
206001 207001 373
207001 208001 311
208001 209001 311
209001 210001 311
210001 211001 342
211001 212001 355
212001 213001 355
213001 214001 373
214001 215001 293
215001 216001 280
216001 217001 386
217001 218001 324
218001 219001 324
219001 220001 355
220001 221001 324
221001 222001 355
222001 223001 324
223001 224001 324
224001 225001 324
225001 226001 368
226001 227001 368
227001 228001 337
228001 229001 355
229001 230001 306
230001 231001 443
231001 232001 350
232001 233001 337
233001 234001 368
234001 235001 381
235001 236001 306
236001 237001 337
237001 238001 350
238001 239001 306
239001 240001 350
240001 241001 368
241001 242001 275
242001 243001 319
243001 244001 337
244001 245001 275
245001 246001 319
246001 247001 332
247001 248001 350
248001 249001 288
249001 250001 350
