1 10 20
100 200 125
201 210 89
900 1000 174
356652 74097 443
246577 496335 449
19898 88993 351
419692 548004 470
201476 567406 470
201571 618807 470
863515 845530 419
874954 588088 525
727016 188516 509
140676 841622 525
652529 199167 509
983420 408670 525
476322 537044 470
212598 886826 525
268603 671980 509
547885 535999 452
388740 583699 470
899980 765954 525
532060 435482 470
449173 195058 449
987692 247428 525
171880 517298 470
573870 988924 525
490018 892369 525
336557 290446 384
683926 913009 525
775749 985908 525
904906 836398 525
888447 217990 525
836880 37342 509
300271 497094 449
268033 360964 441
969768 73807 525
923066 323259 525
522396 929800 525
355958 907693 525
382437 647948 509
121286 883755 525
25315 531690 470
505288 409124 449
812776 275756 509
697772 848395 525
423964 469906 444
339596 988747 525
896803 571951 525
867792 232443 525
39408 829645 509
210724 367633 443
628880 763959 504
383419 655969 509
543676 128887 470
509931 56942 449
977800 427442 525
71477 499074 449
474997 703263 509
243838 303095 407
205265 460730 449
126317 307582 443
81959 322639 443
702925 529647 509
312175 797432 509
126053 787749 509
742336 159052 509
27401 562356 470
804190 624326 509
92893 692325 509
354043 213579 443
380978 295807 441
292257 898939 525
634965 242602 509
830602 707670 468
275098 679839 509
200046 640305 509
855605 319703 525
595985 681507 509
635312 196214 509
271783 474113 449
283193 560471 470
463129 68858 449
442457 767303 509
511898 683892 509
392291 321431 441
243049 183848 443
25965 126587 354
758907 336228 509
848225 440479 525
810329 189749 509
490369 924836 525
620347 420543 470
912495 618592 525
591888 11338 470
828588 329808 509
853239 875904 432
220194 21563 386
409547 467187 449
843215 354523 525
632366 544989 509
132667 871501 525
591401 528953 452
707015 938741 525
725821 250451 509
621466 65049 470
326458 943154 525
652657 288582 509
362948 227346 443
858953 337031 525
693764 663217 442
982887 540620 525
46395 502388 449
602385 571957 434
961702 686815 525
996798 358896 525
687185 939459 525
397336 797104 509
553981 995361 525
729241 274009 509
231681 53648 443
384627 270879 441
779907 310650 509
633787 469416 509
40624 653160 509
82118 292967 443
518935 273763 470
340701 399308 441
883199 607570 525
91295 577715 470
319359 332673 384
426926 70898 449
714454 895666 525
832508 610089 509
516649 951737 525
606060 681689 509
596601 312114 470
365012 275920 441
502904 212880 449
38091 153713 375
216032 719456 509
488123 962088 525
737775 71229 509
716966 114480 509
603444 643113 509
466598 137154 449
576767 471455 470
164111 683122 509
624062 408625 470
19688 172983 383
308291 753684 509
176253 95196 383
266739 587637 470
619793 726813 509
354375 18945 443
937466 796876 525
615838 577399 447
893143 15656 525
508741 619984 470
842167 387189 525
648666 523565 509
464843 700136 509
244805 190586 443
52088 383628 443
632191 53346 509
8839 383005 443
87640 256716 443
922226 689381 525
279404 625559 470
365794 668297 509
174986 576389 470
869599 359665 525
478372 160922 449
883579 592672 525
339768 983171 525
723515 351658 509
846181 29483 525
215639 93632 383
323069 285543 389
340969 165493 443
187271 451598 449
665828 973018 525
483679 228583 449
538150 78623 470
413734 598497 470
646522 859289 525
962302 252165 525
461168 753877 509
614218 273135 470
710729 764279 424
27581 657312 509
286130 737991 509
739156 682240 504
42045 843007 525
387657 117740 443
489335 902617 525
665867 434758 509
922461 671116 525
636644 717064 504
735439 364066 509
682879 735152 504
833313 640169 504
140415 244897 443
576760 443509 470
919794 983240 507
