1 10 20
100 200 125
201 210 89
900 1000 174
999999 999999 259
1 1 1
1 2 2
1 3 8
2 3 8
794 832 135
825 982 179
817 861 148
33 434 144
723 767 153
351 965 179
650 887 179
924 925 130
300 689 145
909 972 174
844 976 179
44 361 144
467 732 171
652 812 171
71 600 144
709 791 153
799 801 73
716 829 153
7 106 119
656 985 179
572 890 179
597 910 179
74 894 179
592 602 119
869 876 179
438 692 145
24 630 144
92 261 128
348 407 126
758 995 179
211 262 128
114 448 144
172 341 144
69 679 145
724 938 179
470 757 171
546 550 93
169 402 144
654 667 145
64 805 171
237 509 144
328 902 179
701 973 179
956 964 130
705 707 127
524 557 137
441 601 142
329 915 179
750 962 179
837 888 179
136 781 171
619 947 179
133 148 117
220 933 179
752 771 153
968 978 143
263 355 144
195 917 179
128 892 179
743 941 179
38 217 125
725 835 153
238 633 144
576 636 132
395 704 171
193 637 144
333 505 142
279 922 179
141 987 179
200 283 128
227 301 128
722 913 179
112 502 144
496 643 137
595 850 171
531 780 171
765 804 153
389 797 171
579 900 179
275 465 144
511 921 179
366 615 142
665 681 145
567 761 171
775 998 179
299 506 144
996 997 50
459 538 142
175 953 179
382 500 142
479 911 179
553 727 171
874 981 174
885 899 148
721 766 153
755 806 153
435 831 171
632311 872099 525
594497 558742 434
17375 140780 354
902397 340074 525
843259 592767 525
337534 49859 443
330729 333464 353
750745 809218 468
967736 261935 525
129824 297164 443
566782 841024 525
284883 586381 470
836414 225763 509
899155 229213 525
905913 949562 507
11435 669764 509
642443 66276 509
803483 378649 509
547088 913365 525
635639 178022 509
155744 594265 470
19686 277746 443
155304 251306 443
329095 230290 443
43308 720687 509
795957 900405 525
784879 865134 525
63405 765173 509
515202 448144 470
692798 876599 525
21361 271530 443
129579 144511 375
645337 308976 509
594452 442312 470
893835 383958 525
754730 341486 509
525477 739298 509
964238 805114 525
329409 869325 525
686995 254357 509
23277 280180 443
532264 693717 509
847924 447757 525
152340 771469 509
20741 8071 279
99318 557568 470
94036 365586 443
252515 175258 443
980813 319580 525
248117 822626 509
89149 311417 443
333563 137993 443
893877 585842 525
900006 319534 525
384618 734033 509
409177 596173 470
849711 248990 525
924851 308354 525
87950 721801 509
896260 813802 525
3903 426215 449
118400 965800 525
157644 979808 525
757954 153144 509
58847 70268 335
729691 802192 468
147757 842455 525
88824 254719 443
579089 810950 509
489038 192836 449
68557 67160 312
850381 854050 357
409364 113091 443
909123 875708 445
560524 206759 470
343703 187044 443
558677 398710 470
264625 2709 443
825669 610097 509
657789 584011 509
300604 529141 470
223299 327747 443
741598 825016 468
286350 783690 509
813598 577331 509
873214 93826 525
227808 50829 386
498900 685629 509
56632 469708 449
909851 62298 525
109353 920596 525
810644 437728 509
1312 565949 470
44705 57498 340
645987 55288 509
362310 892725 525
904400 719729 525
6192 554155 470
257160 82318 443
966804 634509 525
684402 336780 509
957478 366641 525
443906 483310 444
908190 489397 525
262939 932388 525
354498 330556 441
870468 952208 507
169347 29887 383
861639 713110 525
564510 663990 509
754560 925576 525
970905 780027 525
773938 832420 468
445139 348438 449
640305 705636 504
188000 521044 470
336879 823904 509
744514 266654 509
361773 988211 525
390212 151520 443
994701 60231 525
57674 165899 383
694771 543883 509
698505 670730 442
423950 239402 449
700349 645186 442
507033 723517 509
200783 684060 509
475643 720823 509
998449 540941 525
764210 655411 504
630701 905873 525
287761 384848 441
270344 426889 449
489290 112952 449
357029 62240 443
272170 497144 449
741040 600289 509
557190 536261 452
583642 388603 470
923193 341929 525
122787 280113 443
882488 490729 525
387535 374067 423
524859 562915 452
971550 604691 525
354324 31279 443
320443 827526 509
9694 482858 449
91862 614616 470
827308 589166 509
614378 198837 470
424824 75005 449
35350 203625 383
364413 41100 443
262656 171800 443
462267 92072 449
4748 883469 525
172281 438319 449
774015 621453 509
93369 383177 443
860898 573372 525
606480 965615 525
609556 522789 452
502681 68364 449
415744 120259 449
675552 801920 504
176575 493242 449
715108 710902 411
760319 817970 468
609516 149379 470
510312 692979 509
112619 931870 525
19738 59453 340
818708 570612 509
382232 556043 470
443353 550045 470
251189 195436 443
97534 507873 449
803905 72152 509
261448 170237 443
31062 53508 340
647492 293049 509
386394 422790 449
234637 489177 449
148694 198768 383
60958 398171 443
349295 569068 470
333430 496246 449
